<<INFO>>[2022-04-07T16:06:23][oauth2client.client.access_token_expired:650] access_token is expired. Now: 2022-04-07 08:06:23.557763, token_expiry: 2022-04-07 07:47:13
<<ERROR>>[2022-04-07T16:06:23][root.getDrive:80] Google Drive error: No refresh_token found.Please set access_type of OAuth to offline.
<<INFO>>[2022-04-07T16:07:50][oauth2client.client.access_token_expired:650] access_token is expired. Now: 2022-04-07 08:07:50.444026, token_expiry: 2022-04-07 07:47:13
<<ERROR>>[2022-04-07T16:07:50][root.getDrive:80] Google Drive error: No refresh_token found.Please set access_type of OAuth to offline.
<<DEBUG>>[2022-04-07T16:08:56][root.saveData:157] New data received from mote 57
<<DEBUG>>[2022-04-07T16:08:57][root.saveData:172] Data from mote 57 saved
<<DEBUG>>[2022-04-07T16:08:59][root.saveData:157] New data received from mote 57
<<DEBUG>>[2022-04-07T16:08:59][root.saveData:172] Data from mote 57 saved
<<DEBUG>>[2022-04-07T16:09:09][root.saveData:157] New data received from mote 15
<<DEBUG>>[2022-04-07T16:09:10][root.saveData:172] Data from mote 15 saved
<<DEBUG>>[2022-04-07T16:09:16][root.saveData:157] New data received from mote 15
<<DEBUG>>[2022-04-07T16:09:18][root.saveData:172] Data from mote 15 saved
<<DEBUG>>[2022-04-07T16:09:21][root.saveData:157] New data received from mote 51
<<DEBUG>>[2022-04-07T16:09:24][root.saveData:172] Data from mote 51 saved
<<DEBUG>>[2022-04-07T16:10:00][root.saveData:157] New data received from mote 51
<<ERROR>>[2022-04-07T16:10:00][root.exportData:214] Error exporting data: (1, 'Can\'t create/write to file \'/home/pi/argos_data/argos-rawdata-20220407-1610-0002.csv\' (Errcode: 13 "Permission denied")') 
<<DEBUG>>[2022-04-07T16:10:00][root.saveData:172] Data from mote 51 saved
<<DEBUG>>[2022-04-07T16:10:02][root.saveData:157] New data received from mote 52
<<DEBUG>>[2022-04-07T16:10:02][root.saveData:172] Data from mote 52 saved
<<INFO>>[2022-04-07T16:11:59][oauth2client.client.access_token_expired:650] access_token is expired. Now: 2022-04-07 08:11:59.098339, token_expiry: 2022-04-07 07:47:13
<<ERROR>>[2022-04-07T16:11:59][root.getDrive:80] Google Drive error: No refresh_token found.Please set access_type of OAuth to offline.
<<DEBUG>>[2022-04-07T16:14:02][root.saveData:157] New data received from mote 51
<<DEBUG>>[2022-04-07T16:14:08][root.saveData:172] Data from mote 51 saved
<<DEBUG>>[2022-04-07T16:15:00][root.saveData:157] New data received from mote 57
<<DEBUG>>[2022-04-07T16:15:00][root.exportData:221] CSV file generated
<<DEBUG>>[2022-04-07T16:15:00][root.saveData:172] Data from mote 57 saved
<<DEBUG>>[2022-04-07T16:15:00][root.exportData:234] Database emptied
<<INFO>>[2022-04-07T16:15:00][oauth2client.client.access_token_expired:650] access_token is expired. Now: 2022-04-07 08:15:00.337597, token_expiry: 2022-04-07 07:47:13
<<INFO>>[2022-04-07T16:15:00][oauth2client.client.access_token_expired:650] access_token is expired. Now: 2022-04-07 08:15:00.338991, token_expiry: 2022-04-07 07:47:13
<<INFO>>[2022-04-07T16:15:52][oauth2client.client.step2_exchange:2074] Successfully retrieved access token
<<DEBUG>>[2022-04-07T16:15:52][googleapiclient.discovery._retrieve_discovery_doc:371] URL being requested: GET https://www.googleapis.com/discovery/v1/apis/drive/v2/rest
<<DEBUG>>[2022-04-07T16:15:53][googleapiclient.discovery.method:1113] URL being requested: POST https://www.googleapis.com/upload/drive/v2/files?uploadType=resumable&alt=json
<<INFO>>[2022-04-07T16:16:28][oauth2client.client.access_token_expired:650] access_token is expired. Now: 2022-04-07 08:16:28.000186, token_expiry: 2022-04-07 07:47:13
<<ERROR>>[2022-04-07T16:16:28][root.getDrive:80] Google Drive error: No refresh_token found.Please set access_type of OAuth to offline.
<<INFO>>[2022-04-07T16:20:01][oauth2client.client.access_token_expired:650] access_token is expired. Now: 2022-04-07 08:20:01.801837, token_expiry: 2022-04-07 07:47:13
<<ERROR>>[2022-04-07T16:20:01][root.getDrive:80] Google Drive error: No refresh_token found.Please set access_type of OAuth to offline.
<<DEBUG>>[2022-04-07T16:21:00][root.exportData:221] CSV file generated
<<DEBUG>>[2022-04-07T16:21:00][root.exportData:234] Database emptied
<<INFO>>[2022-04-07T16:21:00][oauth2client.client.access_token_expired:650] access_token is expired. Now: 2022-04-07 08:21:00.408566, token_expiry: 2022-04-07 07:47:13
<<INFO>>[2022-04-07T16:21:00][oauth2client.client.access_token_expired:650] access_token is expired. Now: 2022-04-07 08:21:00.410157, token_expiry: 2022-04-07 07:47:13
<<INFO>>[2022-04-07T16:21:05][oauth2client.client.step2_exchange:2061] Received token response with no refresh_token. Consider reauthenticating with prompt='consent'.
<<INFO>>[2022-04-07T16:21:05][oauth2client.client.step2_exchange:2074] Successfully retrieved access token
<<DEBUG>>[2022-04-07T16:21:05][googleapiclient.discovery._retrieve_discovery_doc:371] URL being requested: GET https://www.googleapis.com/discovery/v1/apis/drive/v2/rest
<<DEBUG>>[2022-04-07T16:21:08][googleapiclient.discovery.method:1113] URL being requested: POST https://www.googleapis.com/upload/drive/v2/files?uploadType=resumable&alt=json
<<INFO>>[2022-04-07T16:21:10][root.updateFileUpload:253] Pushed argos-rawdata-20220407-1621-0002.csv to GDrive!
<<DEBUG>>[2022-04-07T16:21:10][root.exportData:221] CSV file generated
<<DEBUG>>[2022-04-07T16:21:10][root.exportData:234] Database emptied
<<DEBUG>>[2022-04-07T16:21:11][googleapiclient.discovery.method:1113] URL being requested: POST https://www.googleapis.com/upload/drive/v2/files?uploadType=resumable&alt=json
<<INFO>>[2022-04-07T16:21:14][root.updateFileUpload:253] Pushed argos-rawdata-20220407-1621-0003.csv to GDrive!
<<DEBUG>>[2022-04-07T16:21:14][root.exportData:221] CSV file generated
<<DEBUG>>[2022-04-07T16:21:15][root.exportData:234] Database emptied
<<DEBUG>>[2022-04-07T16:21:15][googleapiclient.discovery.method:1113] URL being requested: POST https://www.googleapis.com/upload/drive/v2/files?uploadType=resumable&alt=json
<<INFO>>[2022-04-07T16:21:22][root.updateFileUpload:253] Pushed argos-rawdata-20220407-1621-0004.csv to GDrive!
<<DEBUG>>[2022-04-07T16:21:22][root.exportData:221] CSV file generated
<<DEBUG>>[2022-04-07T16:21:23][root.exportData:234] Database emptied
<<DEBUG>>[2022-04-07T16:21:23][googleapiclient.discovery.method:1113] URL being requested: POST https://www.googleapis.com/upload/drive/v2/files?uploadType=resumable&alt=json
<<INFO>>[2022-04-07T16:21:25][root.updateFileUpload:253] Pushed argos-rawdata-20220407-1621-0005.csv to GDrive!
<<DEBUG>>[2022-04-07T16:21:25][root.exportData:221] CSV file generated
<<DEBUG>>[2022-04-07T16:21:25][root.exportData:234] Database emptied
<<DEBUG>>[2022-04-07T16:21:25][googleapiclient.discovery.method:1113] URL being requested: POST https://www.googleapis.com/upload/drive/v2/files?uploadType=resumable&alt=json
<<INFO>>[2022-04-07T16:21:29][root.updateFileUpload:253] Pushed argos-rawdata-20220407-1621-0006.csv to GDrive!
<<DEBUG>>[2022-04-07T16:21:29][root.exportData:221] CSV file generated
<<DEBUG>>[2022-04-07T16:21:30][root.exportData:234] Database emptied
<<DEBUG>>[2022-04-07T16:21:30][googleapiclient.discovery.method:1113] URL being requested: POST https://www.googleapis.com/upload/drive/v2/files?uploadType=resumable&alt=json
<<INFO>>[2022-04-07T16:21:32][root.updateFileUpload:253] Pushed argos-rawdata-20220407-1621-0007.csv to GDrive!
<<INFO>>[2022-04-07T16:24:02][oauth2client.client.access_token_expired:650] access_token is expired. Now: 2022-04-07 08:24:02.657129, token_expiry: 2022-04-07 07:47:13
<<ERROR>>[2022-04-07T16:24:02][root.getDrive:80] Google Drive error: No refresh_token found.Please set access_type of OAuth to offline.
<<DEBUG>>[2022-04-07T16:26:16][root.saveData:157] New data received from mote 52
<<DEBUG>>[2022-04-07T16:26:17][root.saveData:172] Data from mote 52 saved
<<DEBUG>>[2022-04-07T16:26:44][root.saveData:157] New data received from mote 52
<<DEBUG>>[2022-04-07T16:26:52][root.saveData:172] Data from mote 52 saved
<<DEBUG>>[2022-04-07T16:30:00][root.exportData:222] CSV file generated
<<DEBUG>>[2022-04-07T16:30:00][root.exportData:236] Database emptied
<<INFO>>[2022-04-07T16:30:00][oauth2client.client.access_token_expired:650] access_token is expired. Now: 2022-04-07 08:30:00.113716, token_expiry: 2022-04-07 07:47:13
<<INFO>>[2022-04-07T16:30:00][oauth2client.client.access_token_expired:650] access_token is expired. Now: 2022-04-07 08:30:00.115573, token_expiry: 2022-04-07 07:47:13
<<INFO>>[2022-04-07T16:30:08][oauth2client.client.step2_exchange:2061] Received token response with no refresh_token. Consider reauthenticating with prompt='consent'.
<<INFO>>[2022-04-07T16:30:08][oauth2client.client.step2_exchange:2074] Successfully retrieved access token
<<DEBUG>>[2022-04-07T16:30:08][googleapiclient.discovery._retrieve_discovery_doc:371] URL being requested: GET https://www.googleapis.com/discovery/v1/apis/drive/v2/rest
<<DEBUG>>[2022-04-07T16:30:28][googleapiclient.discovery.method:1113] URL being requested: POST https://www.googleapis.com/upload/drive/v2/files?uploadType=resumable&alt=json
<<INFO>>[2022-04-07T16:30:32][root.updateFileUpload:254] Pushed argos-rawdata-20220407-1630-0002.csv to GDrive!
<<DEBUG>>[2022-04-07T16:30:32][root.exportData:222] CSV file generated
<<DEBUG>>[2022-04-07T16:30:32][root.exportData:236] Database emptied
<<DEBUG>>[2022-04-07T16:30:32][googleapiclient.discovery.method:1113] URL being requested: POST https://www.googleapis.com/upload/drive/v2/files?uploadType=resumable&alt=json
<<INFO>>[2022-04-07T16:30:54][root.updateFileUpload:254] Pushed argos-rawdata-20220407-1630-0003.csv to GDrive!
<<DEBUG>>[2022-04-07T16:30:54][root.exportData:222] CSV file generated
<<DEBUG>>[2022-04-07T16:30:55][root.exportData:236] Database emptied
<<DEBUG>>[2022-04-07T16:30:55][googleapiclient.discovery.method:1113] URL being requested: POST https://www.googleapis.com/upload/drive/v2/files?uploadType=resumable&alt=json
<<INFO>>[2022-04-07T16:30:57][root.updateFileUpload:254] Pushed argos-rawdata-20220407-1630-0004.csv to GDrive!
<<DEBUG>>[2022-04-07T16:30:57][root.exportData:222] CSV file generated
<<DEBUG>>[2022-04-07T16:30:57][root.exportData:236] Database emptied
<<DEBUG>>[2022-04-07T16:30:57][googleapiclient.discovery.method:1113] URL being requested: POST https://www.googleapis.com/upload/drive/v2/files?uploadType=resumable&alt=json
<<INFO>>[2022-04-07T16:30:59][root.updateFileUpload:254] Pushed argos-rawdata-20220407-1630-0005.csv to GDrive!
<<DEBUG>>[2022-04-07T16:30:59][root.exportData:222] CSV file generated
<<DEBUG>>[2022-04-07T16:31:00][root.exportData:236] Database emptied
<<DEBUG>>[2022-04-07T16:31:00][googleapiclient.discovery.method:1113] URL being requested: POST https://www.googleapis.com/upload/drive/v2/files?uploadType=resumable&alt=json
<<INFO>>[2022-04-07T16:31:06][root.updateFileUpload:254] Pushed argos-rawdata-20220407-1630-0006.csv to GDrive!
<<INFO>>[2022-04-07T16:37:05][oauth2client.client.access_token_expired:650] access_token is expired. Now: 2022-04-07 08:37:05.631394, token_expiry: 2022-04-07 07:47:13
<<ERROR>>[2022-04-07T16:37:05][root.getDrive:80] Google Drive error: No refresh_token found.Please set access_type of OAuth to offline.
<<INFO>>[2022-04-07T16:37:36][oauth2client.client.access_token_expired:650] access_token is expired. Now: 2022-04-07 08:37:36.986020, token_expiry: 2022-04-07 07:47:13
<<ERROR>>[2022-04-07T16:37:36][root.getDrive:80] Google Drive error: No refresh_token found.Please set access_type of OAuth to offline.
<<INFO>>[2022-04-07T16:40:46][oauth2client.client.access_token_expired:650] access_token is expired. Now: 2022-04-07 08:40:46.704413, token_expiry: 2022-04-07 07:47:13
<<ERROR>>[2022-04-07T16:40:46][root.getDrive:80] Google Drive error: No refresh_token found.Please set access_type of OAuth to offline.
<<INFO>>[2022-04-07T16:41:20][oauth2client.client.step2_exchange:2061] Received token response with no refresh_token. Consider reauthenticating with prompt='consent'.
<<INFO>>[2022-04-07T16:41:20][oauth2client.client.step2_exchange:2074] Successfully retrieved access token
<<DEBUG>>[2022-04-07T16:41:20][googleapiclient.discovery._retrieve_discovery_doc:371] URL being requested: GET https://www.googleapis.com/discovery/v1/apis/drive/v2/rest
<<DEBUG>>[2022-04-07T16:42:24][root.saveData:157] New data received from mote 52
<<DEBUG>>[2022-04-07T16:42:29][root.saveData:172] Data from mote 52 saved
<<DEBUG>>[2022-04-07T16:43:25][root.saveData:157] New data received from mote 57
<<DEBUG>>[2022-04-07T16:43:29][root.saveData:172] Data from mote 57 saved
<<DEBUG>>[2022-04-07T16:45:00][root.saveData:157] New data received from mote 15
<<DEBUG>>[2022-04-07T16:45:00][root.exportData:222] CSV file generated
<<DEBUG>>[2022-04-07T16:45:00][root.exportData:235] Database emptied
<<DEBUG>>[2022-04-07T16:45:00][googleapiclient.discovery.method:1113] URL being requested: POST https://www.googleapis.com/upload/drive/v2/files?uploadType=resumable&alt=json
<<DEBUG>>[2022-04-07T16:45:00][root.saveData:172] Data from mote 15 saved
<<DEBUG>>[2022-04-07T16:45:00][root.saveData:157] New data received from mote 52
<<DEBUG>>[2022-04-07T16:45:00][root.saveData:172] Data from mote 52 saved
<<INFO>>[2022-04-07T16:45:03][root.updateFileUpload:254] Pushed argos-rawdata-20220407-1645-0001.csv to GDrive!
<<DEBUG>>[2022-04-07T17:12:18][googleapiclient.discovery._retrieve_discovery_doc:371] URL being requested: GET https://www.googleapis.com/discovery/v1/apis/drive/v2/rest
<<DEBUG>>[2022-04-07T17:12:20][root.getDrive:91] Authentication successful!
<<DEBUG>>[2022-04-07T17:13:21][root.saveData:157] New data received from mote 54
<<DEBUG>>[2022-04-07T17:13:24][root.saveData:172] Data from mote 54 saved
<<DEBUG>>[2022-04-07T17:13:48][root.saveData:157] New data received from mote 15
<<DEBUG>>[2022-04-07T17:13:55][root.saveData:172] Data from mote 15 saved
<<DEBUG>>[2022-04-07T17:13:57][root.saveData:157] New data received from mote 57
<<DEBUG>>[2022-04-07T17:13:58][root.saveData:172] Data from mote 57 saved
<<DEBUG>>[2022-04-07T17:14:04][root.saveData:157] New data received from mote 51
<<DEBUG>>[2022-04-07T17:14:06][root.saveData:172] Data from mote 51 saved
<<DEBUG>>[2022-04-07T17:14:08][root.saveData:157] New data received from mote 54
<<DEBUG>>[2022-04-07T17:14:09][root.saveData:172] Data from mote 54 saved
<<DEBUG>>[2022-04-07T17:14:12][root.saveData:157] New data received from mote 52
<<DEBUG>>[2022-04-07T17:14:13][root.saveData:172] Data from mote 52 saved
<<DEBUG>>[2022-04-07T17:14:15][root.saveData:157] New data received from mote 54
<<DEBUG>>[2022-04-07T17:14:15][root.saveData:172] Data from mote 54 saved
<<DEBUG>>[2022-04-07T17:14:23][root.saveData:157] New data received from mote 15
<<DEBUG>>[2022-04-07T17:14:23][root.saveData:172] Data from mote 15 saved
<<DEBUG>>[2022-04-07T17:14:39][root.saveData:157] New data received from mote 15
<<DEBUG>>[2022-04-07T17:14:39][root.saveData:172] Data from mote 15 saved
<<DEBUG>>[2022-04-07T17:15:00][root.exportData:222] CSV file generated
<<DEBUG>>[2022-04-07T17:15:00][root.saveData:157] New data received from mote 52
<<DEBUG>>[2022-04-07T17:15:00][root.exportData:235] Database emptied
<<DEBUG>>[2022-04-07T17:15:00][root.saveData:172] Data from mote 52 saved
<<DEBUG>>[2022-04-07T17:15:00][googleapiclient.discovery.method:1113] URL being requested: POST https://www.googleapis.com/upload/drive/v2/files?uploadType=resumable&alt=json
<<DEBUG>>[2022-04-07T17:15:00][root.saveData:157] New data received from mote 15
<<DEBUG>>[2022-04-07T17:15:00][root.saveData:172] Data from mote 15 saved
<<INFO>>[2022-04-07T17:15:07][root.updateFileUpload:253] Pushed argos-rawdata-20220407-1715-0001.csv to GDrive!
<<DEBUG>>[2022-04-07T17:17:19][googleapiclient.discovery._retrieve_discovery_doc:371] URL being requested: GET https://www.googleapis.com/discovery/v1/apis/drive/v2/rest
<<DEBUG>>[2022-04-07T17:17:19][root.getDrive:92] Authentication successful!
<<DEBUG>>[2022-04-07T17:17:52][root.saveData:158] New data received from mote 57
<<DEBUG>>[2022-04-07T17:17:52][root.saveData:173] Data from mote 57 saved
<<DEBUG>>[2022-04-07T17:17:59][root.saveData:158] New data received from mote 51
<<DEBUG>>[2022-04-07T17:18:00][root.saveData:173] Data from mote 51 saved
<<DEBUG>>[2022-04-07T17:18:08][root.saveData:158] New data received from mote 54
<<DEBUG>>[2022-04-07T17:18:09][root.saveData:173] Data from mote 54 saved
<<DEBUG>>[2022-04-07T17:18:55][root.saveData:158] New data received from mote 52
<<DEBUG>>[2022-04-07T17:18:55][root.saveData:173] Data from mote 52 saved
<<DEBUG>>[2022-04-07T17:18:58][root.saveData:158] New data received from mote 15
<<DEBUG>>[2022-04-07T17:18:58][root.saveData:173] Data from mote 15 saved
<<DEBUG>>[2022-04-07T17:19:18][root.saveData:158] New data received from mote 15
<<DEBUG>>[2022-04-07T17:19:18][root.saveData:173] Data from mote 15 saved
<<DEBUG>>[2022-04-07T17:20:00][root.saveData:158] New data received from mote 15
<<DEBUG>>[2022-04-07T17:20:00][root.exportData:223] CSV file generated
<<DEBUG>>[2022-04-07T17:20:00][root.exportData:236] Database emptied
<<DEBUG>>[2022-04-07T17:20:00][root.saveData:173] Data from mote 15 saved
<<DEBUG>>[2022-04-07T17:20:00][googleapiclient.discovery.method:1113] URL being requested: POST https://www.googleapis.com/upload/drive/v2/files?uploadType=resumable&alt=json
<<DEBUG>>[2022-04-07T17:20:00][root.saveData:158] New data received from mote 52
<<DEBUG>>[2022-04-07T17:20:00][root.saveData:173] Data from mote 52 saved
<<DEBUG>>[2022-04-07T17:20:00][root.saveData:158] New data received from mote 54
<<DEBUG>>[2022-04-07T17:20:00][root.saveData:173] Data from mote 54 saved
<<INFO>>[2022-04-07T17:20:02][root.updateFileUpload:254] Pushed argos-rawdata-20220407-1720-0001.csv to GDrive!
<<DEBUG>>[2022-04-07T17:21:44][root.saveData:158] New data received from mote 15
<<DEBUG>>[2022-04-07T17:21:51][root.saveData:173] Data from mote 15 saved
<<DEBUG>>[2022-04-07T17:23:25][root.saveData:158] New data received from mote 15
<<DEBUG>>[2022-04-07T17:23:30][root.saveData:173] Data from mote 15 saved
<<DEBUG>>[2022-04-07T17:38:16][googleapiclient.discovery._retrieve_discovery_doc:371] URL being requested: GET https://www.googleapis.com/discovery/v1/apis/drive/v2/rest
<<DEBUG>>[2022-04-07T17:38:17][root.getDrive:93] Authentication successful!
<<DEBUG>>[2022-04-07T17:39:23][root.saveData:159] New data received from mote 51
<<DEBUG>>[2022-04-07T17:39:28][root.saveData:174] Data from mote 51 saved
<<DEBUG>>[2022-04-07T17:40:43][root.saveData:159] New data received from mote 57
<<DEBUG>>[2022-04-07T17:40:43][root.saveData:174] Data from mote 57 saved
<<DEBUG>>[2022-04-07T17:40:45][root.saveData:159] New data received from mote 52
<<DEBUG>>[2022-04-07T17:40:45][root.saveData:174] Data from mote 52 saved
<<DEBUG>>[2022-04-07T17:41:04][root.saveData:159] New data received from mote 54
<<DEBUG>>[2022-04-07T17:41:05][root.saveData:174] Data from mote 54 saved
<<DEBUG>>[2022-04-07T17:41:10][root.saveData:159] New data received from mote 15
<<DEBUG>>[2022-04-07T17:41:11][root.saveData:174] Data from mote 15 saved
<<DEBUG>>[2022-04-07T18:20:00][root.exportData:224] CSV file generated
<<DEBUG>>[2022-04-07T18:20:00][root.exportData:237] Database emptied
<<INFO>>[2022-04-07T18:20:00][oauth2client.client.access_token_expired:650] access_token is expired. Now: 2022-04-07 10:20:00.251511, token_expiry: 2022-04-07 09:41:18
<<INFO>>[2022-04-07T18:20:00][oauth2client.client.access_token_expired:650] access_token is expired. Now: 2022-04-07 10:20:00.252773, token_expiry: 2022-04-07 09:41:18
<<INFO>>[2022-04-07T18:36:47][oauth2client.client.access_token_expired:650] access_token is expired. Now: 2022-04-07 10:36:47.977724, token_expiry: 2022-04-07 09:41:18
<<ERROR>>[2022-04-07T18:36:47][root.getDrive:82] Google Drive error: No refresh_token found.Please set access_type of OAuth to offline.
<<INFO>>[2022-04-07T18:49:56][oauth2client.client.access_token_expired:650] access_token is expired. Now: 2022-04-07 10:49:56.767347, token_expiry: 2022-04-07 09:41:18
<<ERROR>>[2022-04-07T18:49:56][root.getDrive:84] Google Drive error: No refresh_token found.Please set access_type of OAuth to offline.
<<INFO>>[2022-04-07T18:52:07][oauth2client.client.access_token_expired:650] access_token is expired. Now: 2022-04-07 10:52:07.996949, token_expiry: 2022-04-07 09:41:18
<<ERROR>>[2022-04-07T18:52:07][root.getDrive:84] Google Drive error: No refresh_token found.Please set access_type of OAuth to offline.
<<INFO>>[2022-04-07T18:54:15][oauth2client.client.access_token_expired:650] access_token is expired. Now: 2022-04-07 10:54:15.050836, token_expiry: 2022-04-07 09:41:18
<<ERROR>>[2022-04-07T18:54:15][root.getDrive:84] Google Drive error: No refresh_token found.Please set access_type of OAuth to offline.
<<DEBUG>>[2022-04-07T18:54:15][root.getDrive:102] Authenticated access
<<INFO>>[2022-04-07T18:55:56][oauth2client.client.access_token_expired:650] access_token is expired. Now: 2022-04-07 10:55:56.810862, token_expiry: 2022-04-07 09:41:18
<<ERROR>>[2022-04-07T18:55:56][root.getDrive:86] Google Drive error: No refresh_token found.Please set access_type of OAuth to offline.
<<DEBUG>>[2022-04-07T18:55:56][root.getDrive:104] Authenticated access
<<INFO>>[2022-04-07T19:00:14][oauth2client.client.access_token_expired:650] access_token is expired. Now: 2022-04-07 11:00:14.759523, token_expiry: 2022-04-07 09:41:18
<<ERROR>>[2022-04-07T19:00:14][root.getDrive:86] Google Drive error: No refresh_token found.Please set access_type of OAuth to offline.
<<DEBUG>>[2022-04-07T19:00:14][root.getDrive:104] Authenticated access
<<DEBUG>>[2022-04-07T19:02:00][root.exportData:238] CSV file generated
<<DEBUG>>[2022-04-07T19:02:00][root.exportData:251] Database emptied
<<INFO>>[2022-04-07T19:02:00][oauth2client.client.access_token_expired:650] access_token is expired. Now: 2022-04-07 11:02:00.217559, token_expiry: 2022-04-07 09:41:18
<<INFO>>[2022-04-07T19:02:00][oauth2client.client.access_token_expired:650] access_token is expired. Now: 2022-04-07 11:02:00.219122, token_expiry: 2022-04-07 09:41:18
<<INFO>>[2022-04-07T19:02:03][oauth2client.client.step2_exchange:2061] Received token response with no refresh_token. Consider reauthenticating with prompt='consent'.
<<INFO>>[2022-04-07T19:02:03][oauth2client.client.step2_exchange:2074] Successfully retrieved access token
<<DEBUG>>[2022-04-07T19:02:03][googleapiclient.discovery._retrieve_discovery_doc:371] URL being requested: GET https://www.googleapis.com/discovery/v1/apis/drive/v2/rest
<<DEBUG>>[2022-04-07T19:02:04][googleapiclient.discovery.method:1113] URL being requested: POST https://www.googleapis.com/upload/drive/v2/files?uploadType=resumable&alt=json
<<INFO>>[2022-04-07T19:02:08][root.updateFileUpload:269] Pushed argos-rawdata-20220407-1902-0001.csv to GDrive!
<<INFO>>[2022-04-07T19:05:06][oauth2client.client.access_token_expired:650] access_token is expired. Now: 2022-04-07 11:05:06.486917, token_expiry: 2022-04-07 09:41:18
<<ERROR>>[2022-04-07T19:05:06][root.getDrive:86] Google Drive error: No refresh_token found.Please set access_type of OAuth to offline.
<<INFO>>[2022-04-07T19:08:30][oauth2client.client.access_token_expired:650] access_token is expired. Now: 2022-04-07 11:08:30.359890, token_expiry: 2022-04-07 09:41:18
<<ERROR>>[2022-04-07T19:08:30][root.getDrive:87] Google Drive error: No refresh_token found.Please set access_type of OAuth to offline.
<<DEBUG>>[2022-04-07T19:08:30][root.getDrive:106] Authenticated access.
<<INFO>>[2022-04-07T19:11:56][oauth2client.client.access_token_expired:650] access_token is expired. Now: 2022-04-07 11:11:56.433676, token_expiry: 2022-04-07 09:41:18
<<ERROR>>[2022-04-07T19:11:56][root.getDrive:87] Google Drive error: No refresh_token found.Please set access_type of OAuth to offline.
<<DEBUG>>[2022-04-07T19:11:56][root.getDrive:106] Authenticated access.
<<INFO>>[2022-04-07T19:12:32][oauth2client.client.access_token_expired:650] access_token is expired. Now: 2022-04-07 11:12:32.565613, token_expiry: 2022-04-07 09:41:18
<<ERROR>>[2022-04-07T19:12:32][root.getDrive:87] Google Drive error: No refresh_token found.Please set access_type of OAuth to offline.
<<DEBUG>>[2022-04-07T19:12:32][root.getDrive:106] Authenticated access.
<<INFO>>[2022-04-07T19:13:53][oauth2client.client.access_token_expired:650] access_token is expired. Now: 2022-04-07 11:13:53.362348, token_expiry: 2022-04-07 09:41:18
<<ERROR>>[2022-04-07T19:13:53][root.getDrive:87] Google Drive error: No refresh_token found.Please set access_type of OAuth to offline.
<<DEBUG>>[2022-04-07T19:13:53][root.getDrive:106] Authenticated access.
<<INFO>>[2022-04-07T19:13:53][oauth2client.client.access_token_expired:650] access_token is expired. Now: 2022-04-07 11:13:53.365491, token_expiry: 2022-04-07 09:41:18
<<INFO>>[2022-04-07T19:13:53][oauth2client.client.access_token_expired:650] access_token is expired. Now: 2022-04-07 11:13:53.366606, token_expiry: 2022-04-07 09:41:18
<<INFO>>[2022-04-07T19:13:56][oauth2client.client.step2_exchange:2061] Received token response with no refresh_token. Consider reauthenticating with prompt='consent'.
<<INFO>>[2022-04-07T19:13:56][oauth2client.client.step2_exchange:2074] Successfully retrieved access token
<<DEBUG>>[2022-04-07T19:13:56][googleapiclient.discovery._retrieve_discovery_doc:371] URL being requested: GET https://www.googleapis.com/discovery/v1/apis/drive/v2/rest
<<DEBUG>>[2022-04-07T19:13:57][googleapiclient.discovery.method:1113] URL being requested: POST https://www.googleapis.com/drive/v2/files?alt=json
<<INFO>>[2022-04-07T19:16:56][oauth2client.client.access_token_expired:650] access_token is expired. Now: 2022-04-07 11:16:56.635430, token_expiry: 2022-04-07 09:41:18
<<ERROR>>[2022-04-07T19:16:56][root.getDrive:87] Google Drive error: No refresh_token found.Please set access_type of OAuth to offline.
<<DEBUG>>[2022-04-07T19:16:56][root.getDrive:106] Authenticated access.
<<INFO>>[2022-04-07T19:16:56][oauth2client.client.access_token_expired:650] access_token is expired. Now: 2022-04-07 11:16:56.639980, token_expiry: 2022-04-07 09:41:18
<<INFO>>[2022-04-07T19:16:56][oauth2client.client.access_token_expired:650] access_token is expired. Now: 2022-04-07 11:16:56.641197, token_expiry: 2022-04-07 09:41:18
<<INFO>>[2022-04-07T19:16:59][oauth2client.client.step2_exchange:2061] Received token response with no refresh_token. Consider reauthenticating with prompt='consent'.
<<INFO>>[2022-04-07T19:16:59][oauth2client.client.step2_exchange:2074] Successfully retrieved access token
<<DEBUG>>[2022-04-07T19:16:59][googleapiclient.discovery._retrieve_discovery_doc:371] URL being requested: GET https://www.googleapis.com/discovery/v1/apis/drive/v2/rest
<<DEBUG>>[2022-04-07T19:17:00][googleapiclient.discovery.method:1113] URL being requested: POST https://www.googleapis.com/drive/v2/files?alt=json
<<INFO>>[2022-04-07T19:17:45][oauth2client.client.step2_exchange:2061] Received token response with no refresh_token. Consider reauthenticating with prompt='consent'.
<<INFO>>[2022-04-07T19:17:45][oauth2client.client.step2_exchange:2074] Successfully retrieved access token
<<DEBUG>>[2022-04-07T19:17:45][googleapiclient.discovery._retrieve_discovery_doc:371] URL being requested: GET https://www.googleapis.com/discovery/v1/apis/drive/v2/rest
<<DEBUG>>[2022-04-07T19:17:45][root.getDrive:82] New credentials created.
<<DEBUG>>[2022-04-07T19:17:45][root.getDrive:106] Authenticated access.
<<DEBUG>>[2022-04-07T19:17:45][googleapiclient.discovery.method:1113] URL being requested: POST https://www.googleapis.com/drive/v2/files?alt=json
<<DEBUG>>[2022-04-07T19:18:35][googleapiclient.discovery._retrieve_discovery_doc:371] URL being requested: GET https://www.googleapis.com/discovery/v1/apis/drive/v2/rest
<<DEBUG>>[2022-04-07T19:18:36][root.getDrive:98] Authentication successful!
<<DEBUG>>[2022-04-07T19:18:36][root.getDrive:106] Authenticated access.
<<DEBUG>>[2022-04-07T19:18:36][googleapiclient.discovery.method:1113] URL being requested: POST https://www.googleapis.com/drive/v2/files?alt=json
<<DEBUG>>[2022-04-07T19:19:32][googleapiclient.discovery._retrieve_discovery_doc:371] URL being requested: GET https://www.googleapis.com/discovery/v1/apis/drive/v2/rest
<<DEBUG>>[2022-04-07T19:19:32][root.getDrive:97] Authentication successful!
<<DEBUG>>[2022-04-07T19:19:32][googleapiclient.discovery.method:1113] URL being requested: POST https://www.googleapis.com/drive/v2/files?alt=json
<<DEBUG>>[2022-04-07T19:20:43][googleapiclient.discovery._retrieve_discovery_doc:371] URL being requested: GET https://www.googleapis.com/discovery/v1/apis/drive/v2/rest
<<DEBUG>>[2022-04-07T19:20:43][root.getDrive:97] Authentication successful!
<<DEBUG>>[2022-04-07T19:21:00][root.exportData:233] CSV file generated
<<DEBUG>>[2022-04-07T19:21:00][root.exportData:246] Database emptied
<<DEBUG>>[2022-04-07T19:21:00][googleapiclient.discovery.method:1113] URL being requested: POST https://www.googleapis.com/upload/drive/v2/files?uploadType=resumable&alt=json
<<INFO>>[2022-04-07T19:21:02][root.updateFileUpload:265] Pushed argos-rawdata-20220407-1921-0001.csv to GDrive!
<<DEBUG>>[2022-04-07T19:25:16][googleapiclient.discovery._retrieve_discovery_doc:371] URL being requested: GET https://www.googleapis.com/discovery/v1/apis/drive/v2/rest
<<DEBUG>>[2022-04-07T19:25:16][root.getDrive:97] Authentication successful!
<<DEBUG>>[2022-04-07T19:25:25][root.saveData:170] New data received from mote 52
<<DEBUG>>[2022-04-07T19:25:28][root.saveData:185] Data from mote 52 saved
<<DEBUG>>[2022-04-07T19:29:00][root.saveData:170] New data received from mote 54
<<DEBUG>>[2022-04-07T19:29:06][root.saveData:185] Data from mote 54 saved
<<DEBUG>>[2022-04-07T19:30:00][root.saveData:170] New data received from mote 15
<<DEBUG>>[2022-04-07T19:30:00][root.exportData:235] CSV file generated
<<DEBUG>>[2022-04-07T19:30:00][root.saveData:185] Data from mote 15 saved
<<DEBUG>>[2022-04-07T19:30:00][root.exportData:248] Database emptied
<<DEBUG>>[2022-04-07T19:30:00][googleapiclient.discovery.method:1113] URL being requested: POST https://www.googleapis.com/upload/drive/v2/files?uploadType=resumable&alt=json
<<INFO>>[2022-04-07T19:30:02][root.updateFileUpload:267] Pushed argos-rawdata-20220407-1930-0001.csv to GDrive!
<<DEBUG>>[2022-04-07T19:38:59][googleapiclient.discovery._retrieve_discovery_doc:371] URL being requested: GET https://www.googleapis.com/discovery/v1/apis/drive/v2/rest
<<DEBUG>>[2022-04-07T19:39:00][root.getDrive:97] Authentication successful!
<<DEBUG>>[2022-04-07T19:39:01][root.saveData:170] New data received from mote 52
<<DEBUG>>[2022-04-07T19:39:02][root.saveData:185] Data from mote 52 saved
<<DEBUG>>[2022-04-07T19:39:35][root.saveData:170] New data received from mote 51
<<DEBUG>>[2022-04-07T19:39:42][root.saveData:185] Data from mote 51 saved
<<DEBUG>>[2022-04-07T19:41:07][root.saveData:170] New data received from mote 57
<<DEBUG>>[2022-04-07T19:41:08][root.saveData:185] Data from mote 57 saved
<<DEBUG>>[2022-04-07T19:50:46][root.saveData:170] New data received from mote 54
<<DEBUG>>[2022-04-07T19:50:51][root.saveData:185] Data from mote 54 saved
<<DEBUG>>[2022-04-07T19:55:15][root.saveData:170] New data received from mote 54
<<DEBUG>>[2022-04-07T19:55:19][root.saveData:185] Data from mote 54 saved
<<DEBUG>>[2022-04-07T19:55:52][root.saveData:170] New data received from mote 51
<<DEBUG>>[2022-04-07T19:55:53][root.saveData:185] Data from mote 51 saved
<<DEBUG>>[2022-04-07T20:41:10][root.saveData:170] New data received from mote 52
<<DEBUG>>[2022-04-07T20:41:17][root.saveData:185] Data from mote 52 saved
<<DEBUG>>[2022-04-07T20:42:03][root.saveData:170] New data received from mote 57
<<DEBUG>>[2022-04-07T20:42:07][root.saveData:185] Data from mote 57 saved
<<DEBUG>>[2022-04-07T20:48:01][root.saveData:170] New data received from mote 15
<<DEBUG>>[2022-04-07T20:48:04][root.saveData:185] Data from mote 15 saved
<<DEBUG>>[2022-04-07T20:49:14][root.saveData:170] New data received from mote 51
<<DEBUG>>[2022-04-07T20:49:16][root.saveData:185] Data from mote 51 saved
<<DEBUG>>[2022-04-07T20:50:50][root.saveData:170] New data received from mote 51
<<DEBUG>>[2022-04-07T20:50:53][root.saveData:185] Data from mote 51 saved
<<DEBUG>>[2022-04-07T20:53:15][root.saveData:170] New data received from mote 51
<<DEBUG>>[2022-04-07T20:53:21][root.saveData:185] Data from mote 51 saved
<<DEBUG>>[2022-04-07T21:31:41][root.saveData:170] New data received from mote 54
<<DEBUG>>[2022-04-07T21:31:56][root.saveData:185] Data from mote 54 saved
<<DEBUG>>[2022-04-07T21:41:23][root.saveData:170] New data received from mote 15
<<DEBUG>>[2022-04-07T21:41:32][root.saveData:185] Data from mote 15 saved
<<DEBUG>>[2022-04-07T21:42:25][root.saveData:170] New data received from mote 52
<<DEBUG>>[2022-04-07T21:42:33][root.saveData:185] Data from mote 52 saved
<<DEBUG>>[2022-04-07T21:43:30][root.saveData:170] New data received from mote 57
<<DEBUG>>[2022-04-07T21:43:34][root.saveData:185] Data from mote 57 saved
<<DEBUG>>[2022-04-07T21:48:02][root.saveData:170] New data received from mote 57
<<DEBUG>>[2022-04-07T21:48:05][root.saveData:185] Data from mote 57 saved
<<DEBUG>>[2022-04-07T21:49:38][root.saveData:170] New data received from mote 15
<<DEBUG>>[2022-04-07T21:49:40][root.saveData:185] Data from mote 15 saved
<<DEBUG>>[2022-04-07T21:53:27][root.saveData:170] New data received from mote 51
<<DEBUG>>[2022-04-07T21:53:27][root.saveData:185] Data from mote 51 saved
<<DEBUG>>[2022-04-07T22:07:55][root.saveData:170] New data received from mote 15
<<DEBUG>>[2022-04-07T22:08:04][root.saveData:185] Data from mote 15 saved
<<DEBUG>>[2022-04-07T22:25:23][root.saveData:170] New data received from mote 15
<<DEBUG>>[2022-04-07T22:25:35][root.saveData:185] Data from mote 15 saved
<<DEBUG>>[2022-04-07T22:31:56][root.saveData:170] New data received from mote 54
<<DEBUG>>[2022-04-07T22:31:57][root.saveData:185] Data from mote 54 saved
<<DEBUG>>[2022-04-07T22:42:00][root.saveData:170] New data received from mote 15
<<DEBUG>>[2022-04-07T22:42:09][root.saveData:185] Data from mote 15 saved
<<DEBUG>>[2022-04-07T22:43:43][root.saveData:170] New data received from mote 52
<<DEBUG>>[2022-04-07T22:44:12][root.saveData:185] Data from mote 52 saved
<<DEBUG>>[2022-04-07T22:44:58][root.saveData:170] New data received from mote 57
<<DEBUG>>[2022-04-07T22:45:07][root.saveData:185] Data from mote 57 saved
<<DEBUG>>[2022-04-07T22:51:31][root.saveData:170] New data received from mote 15
<<DEBUG>>[2022-04-07T22:51:31][root.saveData:185] Data from mote 15 saved
<<DEBUG>>[2022-04-07T22:55:28][root.saveData:170] New data received from mote 51
<<DEBUG>>[2022-04-07T22:55:39][root.saveData:185] Data from mote 51 saved
<<DEBUG>>[2022-04-07T23:33:09][root.saveData:170] New data received from mote 54
<<DEBUG>>[2022-04-07T23:33:21][root.saveData:185] Data from mote 54 saved
<<DEBUG>>[2022-04-07T23:42:39][root.saveData:170] New data received from mote 15
<<DEBUG>>[2022-04-07T23:42:42][root.saveData:185] Data from mote 15 saved
<<DEBUG>>[2022-04-07T23:43:56][root.saveData:170] New data received from mote 52
<<DEBUG>>[2022-04-07T23:44:05][root.saveData:185] Data from mote 52 saved
<<DEBUG>>[2022-04-07T23:45:42][root.saveData:170] New data received from mote 57
<<DEBUG>>[2022-04-07T23:45:42][root.saveData:185] Data from mote 57 saved
<<DEBUG>>[2022-04-07T23:56:41][root.saveData:170] New data received from mote 51
<<DEBUG>>[2022-04-07T23:56:57][root.saveData:185] Data from mote 51 saved
<<DEBUG>>[2022-04-08T00:00:00][root.exportData:235] CSV file generated
<<DEBUG>>[2022-04-08T00:00:00][root.exportData:248] Database emptied
<<INFO>>[2022-04-08T00:00:00][oauth2client.client.access_token_expired:650] access_token is expired. Now: 2022-04-07 16:00:00.241725, token_expiry: 2022-04-07 12:17:44
<<INFO>>[2022-04-08T00:00:00][oauth2client.client.access_token_expired:650] access_token is expired. Now: 2022-04-07 16:00:00.243305, token_expiry: 2022-04-07 12:17:44
<<INFO>>[2022-04-08T00:29:48][oauth2client.client.access_token_expired:650] access_token is expired. Now: 2022-04-07 16:29:48.416794, token_expiry: 2022-04-07 12:17:44
<<ERROR>>[2022-04-08T00:29:48][root.getDrive:86] Google Drive error: No refresh_token found.Please set access_type of OAuth to offline.
<<DEBUG>>[2022-04-08T00:30:00][root.exportData:235] CSV file generated
<<DEBUG>>[2022-04-08T00:30:00][root.exportData:248] Database emptied
<<INFO>>[2022-04-08T00:30:00][oauth2client.client.access_token_expired:650] access_token is expired. Now: 2022-04-07 16:30:00.205711, token_expiry: 2022-04-07 12:17:44
<<INFO>>[2022-04-08T00:30:00][oauth2client.client.access_token_expired:650] access_token is expired. Now: 2022-04-07 16:30:00.207168, token_expiry: 2022-04-07 12:17:44
<<INFO>>[2022-04-08T00:30:04][oauth2client.client.step2_exchange:2061] Received token response with no refresh_token. Consider reauthenticating with prompt='consent'.
<<INFO>>[2022-04-08T00:30:04][oauth2client.client.step2_exchange:2074] Successfully retrieved access token
<<DEBUG>>[2022-04-08T00:30:04][googleapiclient.discovery._retrieve_discovery_doc:371] URL being requested: GET https://www.googleapis.com/discovery/v1/apis/drive/v2/rest
<<DEBUG>>[2022-04-08T00:30:06][googleapiclient.discovery.method:1113] URL being requested: POST https://www.googleapis.com/upload/drive/v2/files?uploadType=resumable&alt=json
<<INFO>>[2022-04-08T00:30:12][root.updateFileUpload:266] Pushed argos-rawdata-20220408-0030-0001.csv to Graduate School Building GDrive folder!
<<INFO>>[2022-04-08T00:34:36][oauth2client.client.access_token_expired:650] access_token is expired. Now: 2022-04-07 16:34:36.447186, token_expiry: 2022-04-07 12:17:44
<<ERROR>>[2022-04-08T00:34:36][root.getDrive:86] Google Drive error: No refresh_token found.Please set access_type of OAuth to offline.
<<INFO>>[2022-04-08T00:35:51][oauth2client.client.step2_exchange:2074] Successfully retrieved access token
<<DEBUG>>[2022-04-08T00:35:51][googleapiclient.discovery._retrieve_discovery_doc:371] URL being requested: GET https://www.googleapis.com/discovery/v1/apis/drive/v2/rest
<<DEBUG>>[2022-04-08T00:35:51][root.getDrive:81] New credentials created.
<<DEBUG>>[2022-04-08T00:36:28][googleapiclient.discovery._retrieve_discovery_doc:371] URL being requested: GET https://www.googleapis.com/discovery/v1/apis/drive/v2/rest
<<DEBUG>>[2022-04-08T00:36:29][root.getDrive:97] Authentication successful!
<<DEBUG>>[2022-04-08T00:37:00][root.exportData:235] CSV file generated
<<DEBUG>>[2022-04-08T00:37:00][root.exportData:248] Database emptied
<<DEBUG>>[2022-04-08T00:37:00][googleapiclient.discovery.method:1113] URL being requested: POST https://www.googleapis.com/upload/drive/v2/files?uploadType=resumable&alt=json
<<INFO>>[2022-04-08T00:37:02][root.updateFileUpload:266] Pushed argos-rawdata-20220408-0037-0001.csv to Graduate School Building GDrive folder!
<<DEBUG>>[2022-04-08T00:42:16][googleapiclient.discovery._retrieve_discovery_doc:371] URL being requested: GET https://www.googleapis.com/discovery/v1/apis/drive/v2/rest
<<DEBUG>>[2022-04-08T00:42:17][root.getDrive:97] Authentication successful!
<<DEBUG>>[2022-04-08T00:44:38][root.saveData:170] New data received from mote 15
<<DEBUG>>[2022-04-08T00:44:40][root.saveData:185] Data from mote 15 saved
<<DEBUG>>[2022-04-08T00:45:52][root.saveData:170] New data received from mote 52
<<DEBUG>>[2022-04-08T00:45:58][root.saveData:185] Data from mote 52 saved
<<DEBUG>>[2022-04-08T00:47:01][root.saveData:170] New data received from mote 57
<<DEBUG>>[2022-04-08T00:47:05][root.saveData:185] Data from mote 57 saved
<<DEBUG>>[2022-04-08T00:50:03][root.saveData:170] New data received from mote 52
<<DEBUG>>[2022-04-08T00:50:11][root.saveData:185] Data from mote 52 saved
<<DEBUG>>[2022-04-08T00:57:08][root.saveData:170] New data received from mote 51
<<DEBUG>>[2022-04-08T00:57:16][root.saveData:185] Data from mote 51 saved
<<DEBUG>>[2022-04-08T01:10:39][root.saveData:170] New data received from mote 15
<<DEBUG>>[2022-04-08T01:10:44][root.saveData:185] Data from mote 15 saved
<<DEBUG>>[2022-04-08T01:17:27][root.saveData:170] New data received from mote 15
<<DEBUG>>[2022-04-08T01:17:43][root.saveData:185] Data from mote 15 saved
<<DEBUG>>[2022-04-08T01:33:58][root.saveData:170] New data received from mote 15
<<DEBUG>>[2022-04-08T01:34:29][root.saveData:185] Data from mote 15 saved
<<DEBUG>>[2022-04-08T01:37:37][root.saveData:170] New data received from mote 54
<<DEBUG>>[2022-04-08T01:37:58][root.saveData:185] Data from mote 54 saved
<<DEBUG>>[2022-04-08T01:39:58][root.saveData:170] New data received from mote 51
<<DEBUG>>[2022-04-08T01:40:01][root.saveData:185] Data from mote 51 saved
<<DEBUG>>[2022-04-08T01:44:53][root.saveData:170] New data received from mote 15
<<DEBUG>>[2022-04-08T01:44:53][root.saveData:185] Data from mote 15 saved
<<DEBUG>>[2022-04-08T01:45:41][root.saveData:170] New data received from mote 52
<<DEBUG>>[2022-04-08T01:45:41][root.saveData:185] Data from mote 52 saved
<<DEBUG>>[2022-04-08T01:46:47][root.saveData:170] New data received from mote 57
<<DEBUG>>[2022-04-08T01:46:47][root.saveData:185] Data from mote 57 saved
<<DEBUG>>[2022-04-08T01:59:16][root.saveData:170] New data received from mote 51
<<DEBUG>>[2022-04-08T01:59:58][root.saveData:185] Data from mote 51 saved
<<DEBUG>>[2022-04-08T02:09:24][root.saveData:170] New data received from mote 15
<<DEBUG>>[2022-04-08T02:09:53][root.saveData:185] Data from mote 15 saved
<<DEBUG>>[2022-04-08T02:36:43][root.saveData:170] New data received from mote 54
<<DEBUG>>[2022-04-08T02:37:08][root.saveData:185] Data from mote 54 saved
<<DEBUG>>[2022-04-08T02:45:24][root.saveData:170] New data received from mote 15
<<DEBUG>>[2022-04-08T02:45:24][root.saveData:185] Data from mote 15 saved
<<DEBUG>>[2022-04-08T02:47:05][root.saveData:170] New data received from mote 52
<<DEBUG>>[2022-04-08T02:47:09][root.saveData:185] Data from mote 52 saved
<<DEBUG>>[2022-04-08T02:47:46][root.saveData:170] New data received from mote 57
<<DEBUG>>[2022-04-08T02:47:47][root.saveData:185] Data from mote 57 saved
<<DEBUG>>[2022-04-08T02:59:23][root.saveData:170] New data received from mote 51
<<DEBUG>>[2022-04-08T02:59:28][root.saveData:185] Data from mote 51 saved
<<DEBUG>>[2022-04-08T03:38:56][root.saveData:170] New data received from mote 54
<<DEBUG>>[2022-04-08T03:39:10][root.saveData:185] Data from mote 54 saved
<<DEBUG>>[2022-04-08T03:47:13][root.saveData:170] New data received from mote 15
<<DEBUG>>[2022-04-08T03:47:37][root.saveData:185] Data from mote 15 saved
<<DEBUG>>[2022-04-08T03:48:32][root.saveData:170] New data received from mote 52
<<DEBUG>>[2022-04-08T03:48:44][root.saveData:185] Data from mote 52 saved
<<DEBUG>>[2022-04-08T03:48:53][root.saveData:170] New data received from mote 57
<<DEBUG>>[2022-04-08T03:48:53][root.saveData:185] Data from mote 57 saved
<<DEBUG>>[2022-04-08T04:00:27][root.saveData:170] New data received from mote 51
<<DEBUG>>[2022-04-08T04:00:27][root.saveData:185] Data from mote 51 saved
<<DEBUG>>[2022-04-08T04:38:12][root.saveData:170] New data received from mote 52
<<DEBUG>>[2022-04-08T04:38:15][root.saveData:185] Data from mote 52 saved
<<DEBUG>>[2022-04-08T04:38:45][root.saveData:170] New data received from mote 54
<<DEBUG>>[2022-04-08T04:38:51][root.saveData:185] Data from mote 54 saved
<<DEBUG>>[2022-04-08T04:48:54][root.saveData:170] New data received from mote 15
<<DEBUG>>[2022-04-08T04:49:02][root.saveData:185] Data from mote 15 saved
<<DEBUG>>[2022-04-08T04:49:56][root.saveData:170] New data received from mote 52
<<DEBUG>>[2022-04-08T04:50:00][root.saveData:185] Data from mote 52 saved
<<DEBUG>>[2022-04-08T05:01:17][root.saveData:170] New data received from mote 51
<<DEBUG>>[2022-04-08T05:01:36][root.saveData:185] Data from mote 51 saved
<<DEBUG>>[2022-04-08T05:30:00][root.exportData:235] CSV file generated
<<DEBUG>>[2022-04-08T05:30:00][root.exportData:248] Database emptied
<<INFO>>[2022-04-08T05:30:00][oauth2client.client.access_token_expired:650] access_token is expired. Now: 2022-04-07 21:30:00.689920, token_expiry: 2022-04-07 17:35:50
<<INFO>>[2022-04-08T05:30:00][oauth2client.client.access_token_expired:650] access_token is expired. Now: 2022-04-07 21:30:00.692428, token_expiry: 2022-04-07 17:35:50
<<INFO>>[2022-04-08T05:30:00][oauth2client.client._do_refresh_request:777] Refreshing access_token
<<DEBUG>>[2022-04-08T05:30:01][googleapiclient.discovery.method:1113] URL being requested: POST https://www.googleapis.com/upload/drive/v2/files?uploadType=resumable&alt=json
<<INFO>>[2022-04-08T05:30:03][root.updateFileUpload:266] Pushed argos-rawdata-20220408-0530-0001.csv to Graduate School Building GDrive folder!
<<DEBUG>>[2022-04-08T05:40:27][root.saveData:170] New data received from mote 54
<<DEBUG>>[2022-04-08T05:40:52][root.saveData:185] Data from mote 54 saved
<<DEBUG>>[2022-04-08T05:42:30][root.saveData:170] New data received from mote 54
<<DEBUG>>[2022-04-08T05:42:30][root.saveData:185] Data from mote 54 saved
<<DEBUG>>[2022-04-08T05:48:32][root.saveData:170] New data received from mote 15
<<DEBUG>>[2022-04-08T05:48:36][root.saveData:185] Data from mote 15 saved
<<DEBUG>>[2022-04-08T05:50:18][root.saveData:170] New data received from mote 52
<<DEBUG>>[2022-04-08T05:50:42][root.saveData:185] Data from mote 52 saved
<<DEBUG>>[2022-04-08T06:01:53][root.saveData:170] New data received from mote 51
<<DEBUG>>[2022-04-08T06:01:53][root.saveData:185] Data from mote 51 saved
<<DEBUG>>[2022-04-08T06:05:20][root.saveData:170] New data received from mote 54
<<DEBUG>>[2022-04-08T06:05:28][root.saveData:185] Data from mote 54 saved
<<DEBUG>>[2022-04-08T06:11:40][root.saveData:170] New data received from mote 54
<<DEBUG>>[2022-04-08T06:11:47][root.saveData:185] Data from mote 54 saved
<<DEBUG>>[2022-04-08T06:22:40][root.saveData:170] New data received from mote 54
<<DEBUG>>[2022-04-08T06:23:02][root.saveData:185] Data from mote 54 saved
<<DEBUG>>[2022-04-08T06:40:34][root.saveData:170] New data received from mote 54
<<DEBUG>>[2022-04-08T06:40:39][root.saveData:185] Data from mote 54 saved
<<DEBUG>>[2022-04-08T06:49:22][root.saveData:170] New data received from mote 15
<<DEBUG>>[2022-04-08T06:49:23][root.saveData:185] Data from mote 15 saved
<<DEBUG>>[2022-04-08T06:50:03][root.saveData:170] New data received from mote 52
<<DEBUG>>[2022-04-08T06:50:05][root.saveData:185] Data from mote 52 saved
<<DEBUG>>[2022-04-08T06:51:46][root.saveData:170] New data received from mote 57
<<DEBUG>>[2022-04-08T06:51:48][root.saveData:185] Data from mote 57 saved
<<DEBUG>>[2022-04-08T07:04:44][root.saveData:170] New data received from mote 51
<<DEBUG>>[2022-04-08T07:05:12][root.saveData:185] Data from mote 51 saved
<<DEBUG>>[2022-04-08T07:40:31][root.saveData:170] New data received from mote 54
<<DEBUG>>[2022-04-08T07:40:31][root.saveData:185] Data from mote 54 saved
<<DEBUG>>[2022-04-08T07:50:24][root.saveData:170] New data received from mote 15
<<DEBUG>>[2022-04-08T07:50:33][root.saveData:185] Data from mote 15 saved
<<DEBUG>>[2022-04-08T07:51:16][root.saveData:170] New data received from mote 52
<<DEBUG>>[2022-04-08T07:51:16][root.saveData:185] Data from mote 52 saved
<<DEBUG>>[2022-04-08T08:05:24][root.saveData:170] New data received from mote 51
<<DEBUG>>[2022-04-08T08:05:48][root.saveData:185] Data from mote 51 saved
<<INFO>>[2022-04-08T08:15:23][oauth2client.client.access_token_expired:650] access_token is expired. Now: 2022-04-08 00:15:23.852312, token_expiry: 2022-04-07 22:30:00
<<INFO>>[2022-04-08T08:15:23][oauth2client.client._do_refresh_request:777] Refreshing access_token
<<DEBUG>>[2022-04-08T08:15:24][root.getDrive:90] Auth token refreshed.
<<DEBUG>>[2022-04-08T08:16:00][root.exportData:235] CSV file generated
<<DEBUG>>[2022-04-08T08:16:00][root.exportData:248] Database emptied
<<DEBUG>>[2022-04-08T08:16:00][googleapiclient.discovery._retrieve_discovery_doc:371] URL being requested: GET https://www.googleapis.com/discovery/v1/apis/drive/v2/rest
<<DEBUG>>[2022-04-08T08:16:00][googleapiclient.discovery.method:1113] URL being requested: POST https://www.googleapis.com/upload/drive/v2/files?uploadType=resumable&alt=json
<<INFO>>[2022-04-08T08:16:04][root.updateFileUpload:266] Pushed argos-rawdata-20220408-0816-0001.csv to Graduate School Building GDrive folder!
<<DEBUG>>[2022-04-08T08:23:07][googleapiclient.discovery._retrieve_discovery_doc:371] URL being requested: GET https://www.googleapis.com/discovery/v1/apis/drive/v2/rest
<<DEBUG>>[2022-04-08T08:23:08][root.getDrive:97] Authentication successful!
<<INFO>>[2022-04-08T11:06:23][oauth2client.client.access_token_expired:650] access_token is expired. Now: 2022-04-08 03:06:23.859433, token_expiry: 2022-04-08 01:15:23
<<INFO>>[2022-04-08T11:06:23][oauth2client.client._do_refresh_request:777] Refreshing access_token
<<DEBUG>>[2022-04-08T11:06:24][root.getDrive:91] Auth token refreshed.
<<DEBUG>>[2022-04-08T11:08:09][googleapiclient.discovery._retrieve_discovery_doc:371] URL being requested: GET https://www.googleapis.com/discovery/v1/apis/drive/v2/rest
<<WARNING>>[2022-04-08T11:08:09][googleapiclient.http._retry_request:171] Sleeping 0.57 seconds before retry 1 of 1 for request: GET https://www.googleapis.com/discovery/v1/apis/drive/v2/rest, after Unable to find the server at www.googleapis.com
<<DEBUG>>[2022-04-08T11:09:50][googleapiclient.discovery._retrieve_discovery_doc:371] URL being requested: GET https://www.googleapis.com/discovery/v1/apis/drive/v2/rest
<<DEBUG>>[2022-04-08T11:09:50][root.getDrive:98] Authentication successful!
<<DEBUG>>[2022-04-08T11:11:24][googleapiclient.discovery._retrieve_discovery_doc:371] URL being requested: GET https://www.googleapis.com/discovery/v1/apis/drive/v2/rest
<<WARNING>>[2022-04-08T11:11:44][googleapiclient.http._retry_request:171] Sleeping 1.21 seconds before retry 1 of 1 for request: GET https://www.googleapis.com/discovery/v1/apis/drive/v2/rest, after Unable to find the server at www.googleapis.com
<<DEBUG>>[2022-04-08T11:11:46][root.getDrive:98] Authentication successful!
<<DEBUG>>[2000-01-01T08:14:59][googleapiclient.discovery._retrieve_discovery_doc:371] URL being requested: GET https://www.googleapis.com/discovery/v1/apis/drive/v2/rest
<<WARNING>>[2000-01-01T08:14:59][googleapiclient.http._retry_request:171] Sleeping 1.64 seconds before retry 1 of 1 for request: GET https://www.googleapis.com/discovery/v1/apis/drive/v2/rest, after Unable to find the server at www.googleapis.com
<<DEBUG>>[2000-01-01T08:19:46][googleapiclient.discovery._retrieve_discovery_doc:371] URL being requested: GET https://www.googleapis.com/discovery/v1/apis/drive/v2/rest
<<WARNING>>[2000-01-01T08:19:46][googleapiclient.http._retry_request:171] Sleeping 0.17 seconds before retry 1 of 1 for request: GET https://www.googleapis.com/discovery/v1/apis/drive/v2/rest, after Unable to find the server at www.googleapis.com
<<DEBUG>>[2000-01-01T08:00:28][googleapiclient.discovery._retrieve_discovery_doc:371] URL being requested: GET https://www.googleapis.com/discovery/v1/apis/drive/v2/rest
<<INFO>>[2022-04-20T13:49:32][oauth2client.client.access_token_expired:650] access_token is expired. Now: 2022-04-20 05:49:32.901898, token_expiry: 2022-04-08 04:06:23
